{
  "connector.class": "io.confluent.connect.s3.S3SinkConnector",
  "tasks.max": "1",
  "topics": "your_topic",
  "s3.region": "us-west-2",
  "s3.bucket.name": "your-bucket-name",
  "s3.part.size": "5242880",
  "flush.size": "1000",
  "storage.class": "io.confluent.connect.s3.storage.S3Storage",
  "format.class": "io.confluent.connect.s3.format.json.JsonFormat",
  "schema.compatibility": "NONE"
}
